43 442 17 7
1 2 615
1 3 269
2 3 765
1 4 848
2 4 71
3 5 67
4 5 972
1 6 425
2 6 277
3 6 757
5 6 605
1 7 712
2 7 884
4 7 66
6 7 156
2 8 147
4 8 194
5 8 359
6 8 909
7 8 591
1 9 629
2 9 422
4 9 70
5 9 896
6 9 612
2 10 57
3 10 944
4 10 634
5 10 975
7 10 300
9 10 437
1 11 744
2 11 528
3 11 404
5 11 32
6 11 44
7 11 739
8 11 781
3 12 657
4 12 474
6 12 309
7 12 714
10 12 573
11 12 468
4 13 580
5 13 190
6 13 478
8 13 513
9 13 366
10 13 413
11 13 124
12 13 40
1 14 181
3 14 480
6 14 520
10 14 909
11 14 327
13 14 113
1 15 563
4 15 108
7 15 543
2 16 817
3 16 794
4 16 943
9 16 500
10 16 90
11 16 383
14 16 476
15 16 967
1 17 587
2 17 169
3 17 650
5 17 821
6 17 184
9 17 331
10 17 313
11 17 736
12 17 115
1 18 784
4 18 807
5 18 686
6 18 306
8 18 449
9 18 227
10 18 409
12 18 51
2 19 147
3 19 600
6 19 282
7 19 86
9 19 884
12 19 410
13 19 579
14 19 381
15 19 807
16 19 710
6 20 490
7 20 914
8 20 304
9 20 973
15 20 109
17 20 462
18 20 150
19 20 441
1 21 380
3 21 407
5 21 468
6 21 124
7 21 458
10 21 542
13 21 662
14 21 128
16 21 867
17 21 339
3 22 938
4 22 50
5 22 980
6 22 724
13 22 388
14 22 603
15 22 183
16 22 712
17 22 472
18 22 134
1 23 749
5 23 983
9 23 188
12 23 896
14 23 747
15 23 712
17 23 886
20 23 633
22 23 847
2 24 272
3 24 331
4 24 700
5 24 97
6 24 362
10 24 120
11 24 837
12 24 469
13 24 207
19 24 697
20 24 837
21 24 547
23 24 109
1 25 318
2 25 469
3 25 85
8 25 242
9 25 345
12 25 617
13 25 929
15 25 429
16 25 183
18 25 125
20 25 178
22 25 939
24 25 408
2 26 590
3 26 270
4 26 249
7 26 571
8 26 390
13 26 400
15 26 411
17 26 584
20 26 891
21 26 222
22 26 369
23 26 654
24 26 219
25 26 937
5 27 309
8 27 733
12 27 386
22 27 907
23 27 615
25 27 729
26 27 551
1 28 23
2 28 742
3 28 607
4 28 290
8 28 532
13 28 677
14 28 875
15 28 225
19 28 13
20 28 452
22 28 994
23 28 562
24 28 299
25 28 266
27 28 285
4 29 751
6 29 894
7 29 218
8 29 690
9 29 32
10 29 95
12 29 98
16 29 144
17 29 330
20 29 375
21 29 576
22 29 571
23 29 51
24 29 341
25 29 665
26 29 743
28 29 766
2 30 50
3 30 712
6 30 36
8 30 356
12 30 513
13 30 314
15 30 356
16 30 928
18 30 477
19 30 390
21 30 14
22 30 149
23 30 830
4 31 79
5 31 231
6 31 487
7 31 657
9 31 580
17 31 239
19 31 283
21 31 372
22 31 21
23 31 750
26 31 734
27 31 173
30 31 956
2 32 838
3 32 723
5 32 200
7 32 567
8 32 672
11 32 976
14 32 752
15 32 885
17 32 367
18 32 452
19 32 20
20 32 181
21 32 893
22 32 804
23 32 617
24 32 307
25 32 995
1 33 446
5 33 806
6 33 262
9 33 407
11 33 373
13 33 177
14 33 464
15 33 952
17 33 135
18 33 140
20 33 277
25 33 183
27 33 628
28 33 435
29 33 101
1 34 710
6 34 127
8 34 78
9 34 572
12 34 611
14 34 690
15 34 258
17 34 431
20 34 180
24 34 234
25 34 200
29 34 951
32 34 581
33 34 225
4 35 220
7 35 864
8 35 122
9 35 709
10 35 782
11 35 235
12 35 303
14 35 426
17 35 948
18 35 120
20 35 691
22 35 874
23 35 916
24 35 849
26 35 666
29 35 931
32 35 13
33 35 719
34 35 928
1 36 740
2 36 907
3 36 773
7 36 105
8 36 969
11 36 81
14 36 721
20 36 95
23 36 929
25 36 669
26 36 671
28 36 956
29 36 104
30 36 606
32 36 490
34 36 722
1 37 175
2 37 15
3 37 790
4 37 635
6 37 437
9 37 275
11 37 143
12 37 17
13 37 820
14 37 869
19 37 794
20 37 454
23 37 717
26 37 180
27 37 527
34 37 290
2 38 280
4 38 570
5 38 711
9 38 799
10 38 235
12 38 732
14 38 258
15 38 951
16 38 102
18 38 731
19 38 896
21 38 632
24 38 973
25 38 321
29 38 943
31 38 183
35 38 499
36 38 58
1 39 772
4 39 910
5 39 473
7 39 728
8 39 104
10 39 705
12 39 25
13 39 717
15 39 659
16 39 667
17 39 909
20 39 516
22 39 288
23 39 885
24 39 464
25 39 329
26 39 395
28 39 230
31 39 143
33 39 625
34 39 169
37 39 267
38 39 237
3 40 734
4 40 157
5 40 495
6 40 379
7 40 118
8 40 237
10 40 355
12 40 488
13 40 290
18 40 398
19 40 503
20 40 789
21 40 229
22 40 492
25 40 979
26 40 791
28 40 822
34 40 40
35 40 147
37 40 419
38 40 418
3 41 774
4 41 425
5 41 438
6 41 369
7 41 885
10 41 435
12 41 583
13 41 67
15 41 910
17 41 866
18 41 697
20 41 845
23 41 326
24 41 611
25 41 679
26 41 324
27 41 319
30 41 730
31 41 327
33 41 487
34 41 891
35 41 880
36 41 211
37 41 500
38 41 39
2 42 39
3 42 403
4 42 510
6 42 824
7 42 921
9 42 855
10 42 665
11 42 787
12 42 263
13 42 468
15 42 252
18 42 653
22 42 650
24 42 52
25 42 137
28 42 749
31 42 921
34 42 361
37 42 812
38 42 634
31 12 42 8 9 13 21 38 29 18 22 24 25 17 11 10 15
10 16 29 17 9 11 42
