
26 160 16 7
0 1 21
1 2 15
1 3 69
2 3 65
1 4 48
2 4 71
3 5 67
4 5 72
1 6 25
2 6 77
3 6 57
5 6 05
1 7 12
2 7 84
4 7 66
6 7 56
2 8 47
4 8 94
5 8 59
6 8 09
7 8 91
1 9 29
2 9 22
4 9 70
5 9 96
6 9 12
2 10 57
3 10 44
4 10 34
5 10 75
7 10 10
9 10 37
1 11 44
2 11 28
3 11 04
5 11 32
6 11 44
7 11 39
8 11 81
3 12 57
4 12 74
6 12 09
7 12 14
10 12 73
11 12 68
4 13 80
5 13 90
6 13 78
8 13 13
9 13 66
10 13 13
11 13 24
12 13 40
1 14 181
3 14 80
6 14 20
10 14 09
11 14 27
13 14 13
1 15 63
4 15 08
7 15 43
2 16 17
3 16 94
4 16 43
9 16 50
10 16 90
11 16 83
14 16 76
15 16 67
1 17 87
2 17 69
3 17 50
5 17 21
6 17 84
9 17 31
10 17 13
11 17 36
12 17 15
1 18 84
4 18 07
5 18 86
6 18 06
8 18 49
9 18 27
10 18 09
12 18 51
2 19 47
3 19 60
6 19 82
7 19 86
9 19 884
12 19 10
13 19 79
14 19 81
15 19 87
16 19 10
6 20 90
7 20 14
8 20 04
9 20 73
15 20 19
17 20 62
18 20 50
19 20 41
1 21 80
3 21 07
5 21 68
6 21 24
7 21 58
10 21 42
13 21 62
14 21 28
16 21 67
17 21 39
3 22 38
4 22 50
5 22 80
6 22 24
13 22 88
14 22 03
15 22 83
16 22 12
17 22 72
18 22 34
1 23 49
5 23 83
9 23 88
12 23 96
14 23 47
15 23 12
17 23 86
20 23 33
22 23 47
2 24 72
3 24 31
4 24 70
5 24 97
6 24 32
10 24 10
11 24 37
12 24 69
13 24 07
19 24 97
20 24 37
21 24 47
23 24 09
1 25 18
2 25 69
3 25 85
8 25 42
9 25 45
12 25 17
13 25 29
15 25 29
16 25 83
18 25 25
20 25 78
22 25 39
24 25 08
21 12 8 9 13 22 16 23 18 24 25 20 17 11 10 15
1 2 3 4 7 10 13
