\relax 
\providecommand\HyperFirstAtBeginDocument{\AtBeginDocument}
\HyperFirstAtBeginDocument{\ifx\hyper@anchor\@undefined
\global\let\oldcontentsline\contentsline
\gdef\contentsline#1#2#3#4{\oldcontentsline{#1}{#2}{#3}}
\global\let\oldnewlabel\newlabel
\gdef\newlabel#1#2{\newlabelxx{#1}#2}
\gdef\newlabelxx#1#2#3#4#5#6{\oldnewlabel{#1}{{#2}{#3}}}
\AtEndDocument{\ifx\hyper@anchor\@undefined
\let\contentsline\oldcontentsline
\let\newlabel\oldnewlabel
\fi}
\fi}
\global\let\hyper@last\relax 
\gdef\HyperFirstAtBeginDocument#1{#1}
\providecommand*\HyPL@Entry[1]{}
\HyPL@Entry{0<</S/D>>}
\select@language {greek}
\@writefile{toc}{\select@language {greek}}
\@writefile{lof}{\select@language {greek}}
\@writefile{lot}{\select@language {greek}}
\HyPL@Entry{1<</S/D>>}
\@writefile{toc}{\contentsline {section}{\numberline {1}Aξιωματική Σημασιολογία check1.c}{1}{section.1}}
\@writefile{toc}{\contentsline {section}{\numberline {2}Aξιωματική Σημασιολογία check2.c}{3}{section.2}}
